<?xml version="1.0" encoding="UTF-8"?>
<glyph name="acircumflex" format="1">
  <advance width="586"/>
  <unicode hex="00E2"/>
  <outline>
    <component base="a"/>
    <component base="circumflex" xOffset="119"/>
  </outline>
</glyph>
