<?xml version="1.0" encoding="UTF-8"?>
<glyph name="Aring" format="1">
  <advance width="742"/>
  <unicode hex="00C5"/>
  <outline>
    <component base="A"/>
    <component base="ring" xOffset="180" yOffset="169"/>
  </outline>
</glyph>
