<?xml version="1.0" encoding="UTF-8"?>
<glyph name="ampersand" format="1">
  <advance width="689"/>
  <unicode hex="0026"/>
  <outline>
    <contour>
      <point x="638" y="0" type="line"/>
      <point x="506" y="164" type="line"/>
      <point x="529" y="204"/>
      <point x="551" y="245"/>
      <point x="565" y="286" type="curve"/>
      <point x="489" y="317" type="line"/>
      <point x="475" y="284"/>
      <point x="461" y="261"/>
      <point x="447" y="239" type="curve"/>
      <point x="413" y="280"/>
      <point x="369" y="323"/>
      <point x="344" y="358" type="curve"/>
      <point x="404" y="389"/>
      <point x="472" y="454"/>
      <point x="476" y="555" type="curve"/>
      <point x="476" y="673"/>
      <point x="388" y="727"/>
      <point x="297" y="727" type="curve" smooth="yes"/>
      <point x="193" y="727"/>
      <point x="119" y="653"/>
      <point x="119" y="562" type="curve" smooth="yes"/>
      <point x="119" y="479"/>
      <point x="177" y="419"/>
      <point x="209" y="388" type="curve"/>
      <point x="142" y="345"/>
      <point x="71" y="272"/>
      <point x="71" y="169" type="curve" smooth="yes"/>
      <point x="71" y="46"/>
      <point x="164" y="-7"/>
      <point x="246" y="-7" type="curve" smooth="yes"/>
      <point x="338" y="-7"/>
      <point x="407" y="29"/>
      <point x="448" y="84" type="curve"/>
      <point x="516" y="0" type="line"/>
    </contour>
    <contour>
      <point x="297" y="632" type="curve" smooth="yes"/>
      <point x="346" y="632"/>
      <point x="385" y="605"/>
      <point x="385" y="553" type="curve" smooth="yes"/>
      <point x="385" y="506"/>
      <point x="352" y="454"/>
      <point x="288" y="427" type="curve"/>
      <point x="267" y="451"/>
      <point x="214" y="495"/>
      <point x="214" y="562" type="curve" smooth="yes"/>
      <point x="214" y="603"/>
      <point x="256" y="632"/>
    </contour>
    <contour>
      <point x="256" y="78" type="curve" smooth="yes"/>
      <point x="188" y="78"/>
      <point x="166" y="141"/>
      <point x="166" y="169" type="curve" smooth="yes"/>
      <point x="166" y="216"/>
      <point x="195" y="270"/>
      <point x="263" y="313" type="curve"/>
      <point x="297" y="267"/>
      <point x="352" y="208"/>
      <point x="395" y="155" type="curve"/>
      <point x="370" y="126"/>
      <point x="335" y="78"/>
    </contour>
  </outline>
</glyph>
