<?xml version="1.0" encoding="UTF-8"?>
<glyph name="lslash" format="1">
  <advance width="484"/>
  <unicode hex="0142"/>
  <outline>
    <contour>
      <point x="43" y="329" type="line"/>
      <point x="113" y="259" type="line"/>
      <point x="435" y="482" type="line"/>
      <point x="365" y="552" type="line"/>
    </contour>
    <component base="l" xOffset="41"/>
  </outline>
</glyph>
