<?xml version="1.0" encoding="UTF-8"?>
<glyph name="parenright" format="1">
  <advance width="287"/>
  <unicode hex="0029"/>
  <outline>
    <contour>
      <point x="53" y="-60" type="line"/>
      <point x="76" y="-28"/>
      <point x="153" y="131"/>
      <point x="150" y="333" type="curve" smooth="yes"/>
      <point x="147" y="564"/>
      <point x="90" y="709"/>
      <point x="70" y="739" type="curve"/>
      <point x="132" y="739" type="line"/>
      <point x="181" y="675"/>
      <point x="230" y="489"/>
      <point x="230" y="353" type="curve" smooth="yes"/>
      <point x="230" y="208"/>
      <point x="176" y="12"/>
      <point x="120" y="-60" type="curve"/>
    </contour>
  </outline>
</glyph>
