<?xml version="1.0" encoding="UTF-8"?>
<glyph name="tilde" format="1">
  <advance width="397"/>
  <unicode hex="02DC"/>
  <outline>
    <contour>
      <point x="29" y="654" type="line"/>
      <point x="48" y="699"/>
      <point x="88" y="744"/>
      <point x="140" y="744" type="curve" smooth="yes"/>
      <point x="189" y="744"/>
      <point x="232" y="711"/>
      <point x="265" y="711" type="curve" smooth="yes"/>
      <point x="288" y="711"/>
      <point x="300" y="719"/>
      <point x="311" y="752" type="curve"/>
      <point x="374" y="733" type="line"/>
      <point x="358" y="676"/>
      <point x="317" y="645"/>
      <point x="265" y="645" type="curve" smooth="yes"/>
      <point x="219" y="645"/>
      <point x="182" y="678"/>
      <point x="140" y="678" type="curve" smooth="yes"/>
      <point x="119" y="678"/>
      <point x="101" y="653"/>
      <point x="89" y="628" type="curve"/>
    </contour>
  </outline>
</glyph>
