<?xml version="1.0" encoding="UTF-8"?>
<glyph name="woman" format="1">
  <advance width="457"/>
  <outline>
    <contour>
      <point x="230" y="627" type="curve" smooth="yes"/>
      <point x="268" y="627"/>
      <point x="300" y="658"/>
      <point x="300" y="697" type="curve" smooth="yes"/>
      <point x="300" y="735"/>
      <point x="268" y="767"/>
      <point x="230" y="767" type="curve" smooth="yes"/>
      <point x="191" y="767"/>
      <point x="160" y="735"/>
      <point x="160" y="697" type="curve" smooth="yes"/>
      <point x="160" y="658"/>
      <point x="191" y="627"/>
    </contour>
    <contour>
      <point x="364" y="517" type="line"/>
      <point x="364" y="522"/>
      <point x="364" y="527"/>
      <point x="364" y="532" type="curve" smooth="yes"/>
      <point x="364" y="558"/>
      <point x="360" y="581"/>
      <point x="306" y="581" type="curve" smooth="yes"/>
      <point x="161" y="581" type="line" smooth="yes"/>
      <point x="92" y="581"/>
      <point x="94" y="556"/>
      <point x="94" y="522" type="curve" smooth="yes"/>
      <point x="94" y="326" type="line"/>
      <point x="144" y="326" type="line"/>
      <point x="144" y="522" type="line"/>
      <point x="157" y="522" type="line"/>
      <point x="180" y="424" type="line"/>
      <point x="180" y="389" type="line"/>
      <point x="125" y="180" type="line"/>
      <point x="184" y="180" type="line"/>
      <point x="192" y="0" type="line"/>
      <point x="267" y="0" type="line"/>
      <point x="275" y="180" type="line"/>
      <point x="334" y="180" type="line"/>
      <point x="279" y="389" type="line"/>
      <point x="279" y="423" type="line"/>
      <point x="302" y="522" type="line"/>
      <point x="315" y="522" type="line"/>
      <point x="315" y="326" type="line"/>
      <point x="364" y="326" type="line"/>
      <point x="364" y="537" type="line"/>
    </contour>
  </outline>
</glyph>
