<?xml version="1.0" encoding="UTF-8"?>
<glyph name="z" format="1">
  <advance width="587"/>
  <unicode hex="007A"/>
  <outline>
    <contour>
      <point x="84" y="551" type="line" smooth="yes"/>
      <point x="84" y="456" type="line"/>
      <point x="387" y="456" type="line"/>
      <point x="367" y="440" type="line"/>
      <point x="84" y="95" type="line"/>
      <point x="84" y="0" type="line"/>
      <point x="503" y="0" type="line"/>
      <point x="503" y="95" type="line"/>
      <point x="200" y="95" type="line"/>
      <point x="220" y="110" type="line"/>
      <point x="503" y="456" type="line"/>
      <point x="503" y="551" type="line"/>
    </contour>
  </outline>
</glyph>
